<?xml version="1.0" encoding="UTF-8" standalone="no"?>
<!DOCTYPE svg PUBLIC "-//W3C//DTD SVG 1.1//EN"
 "http://www.w3.org/Graphics/SVG/1.1/DTD/svg11.dtd">
<!-- Generated by graphviz version 2.47.3 (20210619.1520)
 -->
<!-- Title: dependencies Pages: 1 -->
<svg width="901pt" height="174pt"
 viewBox="0.00 0.00 901.00 173.80" xmlns="http://www.w3.org/2000/svg" xmlns:xlink="http://www.w3.org/1999/xlink">
<g id="graph0" class="graph" transform="scale(1 1) rotate(0) translate(4 169.8)">
<title>dependencies</title>
<polygon fill="white" stroke="transparent" points="-4,4 -4,-169.8 897,-169.8 897,4 -4,4"/>
<text text-anchor="middle" x="446.5" y="-8.2" font-family="sans-serif" font-size="14.00">dependencies</text>
<g id="clust1" class="cluster">
<title>cluster_LoginModule</title>
<polygon fill="none" stroke="black" stroke-dasharray="1,5" points="8,-32.8 8,-157.8 885,-157.8 885,-32.8 8,-32.8"/>
</g>
<g id="clust7" class="cluster">
<title>cluster_LoginModule_imports</title>
<polygon fill="none" stroke="black" points="607,-40.8 607,-92.8 877,-92.8 877,-40.8 607,-40.8"/>
</g>
<g id="clust2" class="cluster">
<title>cluster_LoginModule_declarations</title>
<polygon fill="none" stroke="black" points="16,-40.8 16,-92.8 599,-92.8 599,-40.8 16,-40.8"/>
</g>
<!-- LoginComponent -->
<g id="node1" class="node">
<title>LoginComponent</title>
<polygon fill="#ffffb3" stroke="black" points="591.28,-84.8 476.72,-84.8 476.72,-48.8 591.28,-48.8 591.28,-84.8"/>
<text text-anchor="middle" x="534" y="-62.6" font-family="Times,serif" font-size="14.00">LoginComponent</text>
</g>
<!-- LoginModule -->
<g id="node5" class="node">
<title>LoginModule</title>
<polygon fill="#8dd3c7" stroke="black" points="509.49,-149.8 506.49,-153.8 485.49,-153.8 482.49,-149.8 416.51,-149.8 416.51,-113.8 509.49,-113.8 509.49,-149.8"/>
<text text-anchor="middle" x="463" y="-127.6" font-family="Times,serif" font-size="14.00">LoginModule</text>
</g>
<!-- LoginComponent&#45;&gt;LoginModule -->
<g id="edge1" class="edge">
<title>LoginComponent&#45;&gt;LoginModule</title>
<path fill="none" stroke="black" d="M493.05,-84.91C493.05,-84.91 493.05,-103.79 493.05,-103.79"/>
<polygon fill="black" stroke="black" points="489.55,-103.79 493.05,-113.79 496.55,-103.79 489.55,-103.79"/>
</g>
<!-- LostPassComponent -->
<g id="node2" class="node">
<title>LostPassComponent</title>
<polygon fill="#ffffb3" stroke="black" points="458.61,-84.8 327.39,-84.8 327.39,-48.8 458.61,-48.8 458.61,-84.8"/>
<text text-anchor="middle" x="393" y="-62.6" font-family="Times,serif" font-size="14.00">LostPassComponent</text>
</g>
<!-- LostPassComponent&#45;&gt;LoginModule -->
<g id="edge2" class="edge">
<title>LostPassComponent&#45;&gt;LoginModule</title>
<path fill="none" stroke="black" d="M437.53,-84.91C437.53,-84.91 437.53,-103.79 437.53,-103.79"/>
<polygon fill="black" stroke="black" points="434.03,-103.79 437.53,-113.79 441.03,-103.79 434.03,-103.79"/>
</g>
<!-- RegistrationComponent -->
<g id="node3" class="node">
<title>RegistrationComponent</title>
<polygon fill="#ffffb3" stroke="black" points="309.77,-84.8 160.23,-84.8 160.23,-48.8 309.77,-48.8 309.77,-84.8"/>
<text text-anchor="middle" x="235" y="-62.6" font-family="Times,serif" font-size="14.00">RegistrationComponent</text>
</g>
<!-- RegistrationComponent&#45;&gt;LoginModule -->
<g id="edge3" class="edge">
<title>RegistrationComponent&#45;&gt;LoginModule</title>
<path fill="none" stroke="black" d="M235,-84.82C235,-102.17 235,-125.8 235,-125.8 235,-125.8 406.31,-125.8 406.31,-125.8"/>
<polygon fill="black" stroke="black" points="406.31,-129.3 416.31,-125.8 406.31,-122.3 406.31,-129.3"/>
</g>
<!-- SignInComponent -->
<g id="node4" class="node">
<title>SignInComponent</title>
<polygon fill="#ffffb3" stroke="black" points="142.17,-84.8 23.83,-84.8 23.83,-48.8 142.17,-48.8 142.17,-84.8"/>
<text text-anchor="middle" x="83" y="-62.6" font-family="Times,serif" font-size="14.00">SignInComponent</text>
</g>
<!-- SignInComponent&#45;&gt;LoginModule -->
<g id="edge4" class="edge">
<title>SignInComponent&#45;&gt;LoginModule</title>
<path fill="none" stroke="black" d="M83,-85.08C83,-106.12 83,-137.8 83,-137.8 83,-137.8 406.4,-137.8 406.4,-137.8"/>
<polygon fill="black" stroke="black" points="406.4,-141.3 416.4,-137.8 406.4,-134.3 406.4,-141.3"/>
</g>
<!-- LoginRoutingModule -->
<g id="node6" class="node">
<title>LoginRoutingModule</title>
<polygon fill="#8dd3c7" stroke="black" points="869.11,-84.8 866.11,-88.8 845.11,-88.8 842.11,-84.8 730.89,-84.8 730.89,-48.8 869.11,-48.8 869.11,-84.8"/>
<text text-anchor="middle" x="800" y="-62.6" font-family="Times,serif" font-size="14.00">LoginRoutingModule</text>
</g>
<!-- LoginRoutingModule&#45;&gt;LoginModule -->
<g id="edge5" class="edge">
<title>LoginRoutingModule&#45;&gt;LoginModule</title>
<path fill="none" stroke="black" d="M800,-85.08C800,-106.12 800,-137.8 800,-137.8 800,-137.8 519.5,-137.8 519.5,-137.8"/>
<polygon fill="black" stroke="black" points="519.5,-134.3 509.5,-137.8 519.5,-141.3 519.5,-134.3"/>
</g>
<!-- SharedModule -->
<g id="node7" class="node">
<title>SharedModule</title>
<polygon fill="#8dd3c7" stroke="black" points="713.42,-84.8 710.42,-88.8 689.42,-88.8 686.42,-84.8 614.58,-84.8 614.58,-48.8 713.42,-48.8 713.42,-84.8"/>
<text text-anchor="middle" x="664" y="-62.6" font-family="Times,serif" font-size="14.00">SharedModule</text>
</g>
<!-- SharedModule&#45;&gt;LoginModule -->
<g id="edge6" class="edge">
<title>SharedModule&#45;&gt;LoginModule</title>
<path fill="none" stroke="black" d="M664,-84.82C664,-102.17 664,-125.8 664,-125.8 664,-125.8 519.62,-125.8 519.62,-125.8"/>
<polygon fill="black" stroke="black" points="519.62,-122.3 509.62,-125.8 519.62,-129.3 519.62,-122.3"/>
</g>
</g>
</svg>
