{
  "users": [
    {
      "name": "Clementine Bauch",
      "gender": "F",
      "email": "Nathan@yesenia.net",
      "id": 1
    },
    {
      "name": "Glenna Reicherteee",
      "gender": "F",
      "email": "Chaim_McDermott@dana.io",
      "id": 2
    },
    {
      "id": 3,
      "name": "Clementina DuBuque",
      "gender": "F",
      "username": "Moriah.Stanton",
      "email": "Rey.Padberg@karina.biz",
      "address": {
        "street": "Kattie Turnpike",
        "suite": "Suite 198",
        "city": "Lebsackbury",
        "zipcode": "31428-2261",
        "geo": {
          "lat": "-38.2386",
          "lng": "57.2232"
        }
      },
      "nextId": 4,
      "phone": "024-648-3804",
      "website": "ambrose.net",
      "company": {
        "name": "Hoeger LLC",
        "gender": "M",
        "catchPhrase": "Centralized empowering task-force",
        "bs": "target end-to-end models"
      }
    },
    {
      "name": "glen",
      "gender": "M",
      "email": "glen@ef.ef",
      "id": 4
    },
    {
      "name": "wefewf",
      "gender": "M",
      "email": "wefewfw@wefe.efe",
      "id": 5
    }
  ],
  "login": {
    "token": "ewoifhwehfoewh",
    "displayName": "Mario Biondi",
    "role": "moderator"
  }
}
